spring/controller/MessageController.class
spring/exception/ResourceNotFoundException.class
spring/config/WebMvcConfig.class
spring/validate/MessageValidator.class
spring/service/MessageService.class
spring/service/PostcodeServiceImpl.class
spring/entity/Message.class
spring/config/PersistenceJPAConfig.class
spring/repository/MessageRepository.class
spring/config/AppInitializer.class
